Lab_8
…
From what I see as minimal node size decreases, so does rmse and mae while rsq increases. This indicates high correlation and low error between the data set and the minimal node size. There is no obvious correlation between the number of trees and the data set.

Check the Skill of the Tuned Model

collect_metrics(model_params)

# A tibble: 60 × 8
   trees min_n .metric .estimator  mean     n std_err .config              
   <int> <int> <chr>   <chr>      <dbl> <int>   <dbl> <chr>                
 1    18    17 mae     standard   0.340    10  0.0130 Preprocessor1_Model01
 2    18    17 rmse    standard   0.553    10  0.0295 Preprocessor1_Model01
 3    18    17 rsq     standard   0.779    10  0.0284 Preprocessor1_Model01
 4   267     3 mae     standard   0.346    10  0.0123 Preprocessor1_Model02
 5   267     3 rmse    standard   0.571    10  0.0256 Preprocessor1_Model02
 6   267     3 rsq     standard   0.764    10  0.0276 Preprocessor1_Model02
 7   845    27 mae     standard   0.332    10  0.0124 Preprocessor1_Model03
 8   845    27 rmse    standard   0.536    10  0.0274 Preprocessor1_Model03
 9   845    27 rsq     standard   0.792    10  0.0245 Preprocessor1_Model03
10  1687    12 mae     standard   0.336    10  0.0126 Preprocessor1_Model04
# ℹ 50 more rows
…
